<svg xmlns="http://www.w3.org/2000/svg" viewBox="0 0 20 20">
  <defs>
    <style>
      .cls-1 {
        fill: #fff;
      }
    </style>
  </defs>
  <path class="cls-1" d="M12.82,11a3,3,0,0,1-5.64,0H.05A10,10,0,0,0,20,11Z" />
  <path class="cls-1" d="M10,0A10,10,0,0,0,.05,9H7.18a3,3,0,0,1,5.64,0H20A10,10,0,0,0,10,0Z" />
  <circle class="cls-1" cx="10" cy="10" r="2" />
</svg>
